{
	"time":1394608033304,
	"categorys":[
		{"name":"最新","id":0},
		{"name":"精华","id":1},
		{"name":"同城","id":2},
		{"name":"女生","id":3},
		{"name":"阵型","id":4},
		{"name":"其他","id":5},
		{"name":"进攻","id":6},
		{"name":"防守","id":7}
	],
	"page":{
		"firstResult":70,
		"datas":[
			{
				"address":"上海",
				"id":"53143a87154daf52418864b4",
				"content":"升了8本以后，要注意些什么，感觉金钱就打拉伤款到即发看撒打发第。",
				"status":1,
				"userName":"@我爱沈煜@",
				"answer":[{
					"address":"福州",
					"type":2,
					"content":"你好啊",
					"status":0,
					"userName":"赤焱の匮鏃",
					"uuid":"bbbbbbbb",
					"createTime":"1393398277390",
					"updateTime":null,
					"integral":0,
					"pic1":"",
					"pic2":"",
					"pic3":"",
					"userId":
					"aaaaaa",
					"userPic":"",
					"aid":null,
					"isHasAdd":0,
					"isBest":1
				}],
				"createTime":"1393398277390",
				"updateTime":"1393398277390",
				"appId":1,
				"userSex":null,
				"isFinish":1,
				"categoryId":1,
				"bestAnswer":null,
				"integral":0,
				"pic1":"",
				"pic2":"",
				"pic3":"",
				"userId":"eeeeee",
				"userPic":"",
				"answerNum":1
			},
			{"address":"福州","id":"530d9343154d7b096d69384d","content":"新加兵种女巫的衣服好性感，哪里有卖？","status":1,"userName":"赤焱の匮鏃","answer":[{"address":"福州","type":2,"content":"你好啊","status":0,"userName":"赤焱の匮鏃","uuid":"bbbbbbbb","createTime":"1393398277390","updateTime":null,"integral":0,"pic1":"","pic2":"","pic3":"","userId":"aaaaaa","userPic":"","aid":null,"isHasAdd":0,"isBest":1},{"address":"北京","type":0,"content":"淘宝","status":0,"userName":"test","uuid":"2dd063dfd7b9437fa79646a904125c3e","createTime":"2014-03-03 17:58:50","updateTime":null,"integral":0,"pic1":null,"pic2":null,"pic3":null,"userId":"52f9d41a154dacad5918115a","userPic":null,"aid":null,"isHasAdd":0,"isBest":1},
			{"address":"北京","type":0,"content":"淘宝","status":0,"userName":"test","uuid":"eef50d4cd8d04810b5f49010d5d87e55","createTime":"2014-03-03 17:59:28","updateTime":null,"integral":0,"pic1":"http://uptime.ds.test.17173.com/fe/18/a937444546fc974f8d0c5173334c.png","pic2":null,"pic3":null,"userId":"52f9d41a154dacad5918115a","userPic":null,"aid":null,"isHasAdd":0,"isBest":1},{"address":"北京","type":0,"content":"哈哈哈","status":0,"userName":"test","uuid":"6fcc822f60fe461497c382e2b5c3b6e6","createTime":"2014-03-03 18:03:15","updateTime":null,"integral":0,"pic1":null,"pic2":null,"pic3":null,"userId":"52f9d41a154dacad5918115a","userPic":null,"aid":null,"isHasAdd":0,"isBest":1},
			{"address":"北京","type":0,"content":"ujujujhujujju","status":0,"userName":"百科问答官方","uuid":"3499b6dc389545798fa598d2039630bf","createTime":"2014-03-11 16:07:33","updateTime":null,"integral":0,"pic1":null,"pic2":null,"pic3":null,"userId":"admin","userPic":"","aid":null,"isHasAdd":0,"isBest":1},
			{"address":"北京","type":0,"content":"hhhhh","status":0,"userName":"百科问答官方","uuid":"93afa115e1d84a39831b640cf8b4fe12","createTime":"1394525831021","updateTime":"1394525831021","integral":0,"pic1":null,"pic2":null,"pic3":null,"userId":"admin","userPic":"","aid":null,"isHasAdd":0,"isBest":1},
			{"address":"北京","type":0,"content":"zzz","status":0,"userName":"百科问答官方","uuid":"b14ac2bf9ba54ccda4dbd03333558cee","createTime":"1394605114088","updateTime":"1394605114088","integral":0,"pic1":null,"pic2":null,"pic3":null,"userId":"admin","userPic":"","aid":null,"isHasAdd":0,"isBest":1},
			{"address":"北京","type":0,"content":"aaa","status":0,"userName":"百科问答官方","uuid":"e2c4685247f44579b107599cc70fbb8e","createTime":"1394606576341","updateTime":"1394606576341","integral":0,"pic1":null,"pic2":null,"pic3":null,"userId":"admin","userPic":"","aid":null,"isHasAdd":0,"isBest":1}],"createTime":"1393398277390","updateTime":"1394606576347","appId":1,"userSex":null,"isFinish":1,"categoryId":1,"bestAnswer":null,"integral":0,"pic1":"","pic2":"","pic3":"","userId":"aaaaaa","userPic":"","answerNum":8}],"pageNo":8,"pageSize":10,"lastResult":80,"nextPage":8,"totalPage":8,"upPage":7,"totalCount":72,"pageUrl":null},"status":0}